Magick Graphics Device — device • rOpenSci: magick
…
# Vectorized example with custom coordinates
earth <- image_read("https://jeroen.github.io/images/earth.gif")
img <- image_draw(earth, xlim = c(0,1), ylim = c(0,1))
rect(.1, .1, .9, .9, border = "red", lty = "dashed", lwd = 5)
text(.5, .9, "Our planet", cex = 3, col = "white")
dev.off()

#> agg_png 
#>       2 
print(img)

#> # A tibble: 44 x 7
#>    format width height colorspace matte filesize density
#>    <chr>  <int>  <int> <chr>      <lgl>    <int> <chr>  
#>  1 GIF      400    400 sRGB       TRUE         0 72x72  
#>  2 GIF      400    400 sRGB       TRUE         0 72x72  
#>  3 GIF      400    400 sRGB       TRUE         0 72x72  
#>  4 GIF      400    400 sRGB       TRUE         0 72x72  
#>  5 GIF      400    400 sRGB       TRUE         0 72x72  
#>  6 GIF      400    400 sRGB       TRUE         0 72x72  
#>  7 GIF      400    400 sRGB       TRUE         0 72x72  
#>  8 GIF      400    400 sRGB       TRUE         0 72x72  
#>  9 GIF      400    400 sRGB       TRUE         0 72x72  
#> 10 GIF      400    400 sRGB       TRUE         0 72x72  
#> # … with 34 more rows
…
